<svg width="20" height="20" viewBox="0 0 20 20" fill="none" xmlns="http://www.w3.org/2000/svg">
<g id="person-24px">
<path id="Shape" fill-rule="evenodd" clip-rule="evenodd" d="M13.333 6.66671C13.333 8.50837 11.8413 10 9.99965 10C8.15799 10 6.66632 8.50837 6.66632 6.66671C6.66632 4.82504 8.15799 3.33337 9.99965 3.33337C11.8413 3.33337 13.333 4.82504 13.333 6.66671ZM3.33301 15.0001C3.33301 12.7834 7.77467 11.6667 9.99967 11.6667C12.2247 11.6667 16.6663 12.7834 16.6663 15.0001V16.6667H3.33301V15.0001Z" fill="#666666"/>
</g>
</svg>
