<svg width="20" height="18" viewBox="0 0 20 18" fill="none" xmlns="http://www.w3.org/2000/svg">
<path fill-rule="evenodd" clip-rule="evenodd" d="M0 13.785L3.30164 10.4408C5.04917 9.18995 6.8247 8.96395 8.62824 9.76278H12.4302C13.1371 9.76278 13.7102 10.3358 13.7102 11.0428C13.7102 11.7497 13.1371 12.3227 12.4302 12.3227H9.58077V13.2388H12.9727C13.3015 13.2388 13.6142 13.0968 13.8305 12.8493L17.1652 9.03412C17.6802 8.44488 18.5693 8.36916 19.1765 8.86282C19.7664 9.34234 19.8559 10.2092 19.3763 10.7991C19.3709 10.8058 19.3654 10.8125 19.3598 10.8191L15.3362 15.5825C14.7734 16.2487 13.9455 16.6331 13.0734 16.6331H6.15819L5.05721 17.9153L0 13.785Z" fill="#F6A500"/>
<path fill-rule="evenodd" clip-rule="evenodd" d="M10.7741 6.40823L8.263 7.7284L8.74258 4.93224L6.71105 2.95198L9.51855 2.54403L10.7741 0L12.0297 2.54403L14.8372 2.95198L12.8056 4.93224L13.2852 7.7284L10.7741 6.40823Z" fill="#F6A500"/>
</svg>
