<svg width="18" height="17" viewBox="0 0 18 17" fill="none" xmlns="http://www.w3.org/2000/svg">
<path id="Path" fill-rule="evenodd" clip-rule="evenodd" d="M12.6364 1C15.0463 1 17 2.91878 17 5.28571C17 9.57027 9 16 9 16C9 16 1 9.57114 1 5.28571C1 2.91878 2.95367 1 5.36364 1C6.88183 1 8.21894 1.76148 9.00061 2.91676C9.78106 1.76148 11.1182 1 12.6364 1Z" fill="#A3A3A3" fill-opacity="0.1" stroke="#A3A3A3" stroke-width="1.5"/>
</svg>
